{
  "profiles": {
    "SimpleShop.WebHost": {
      "commandName": "Project",
      "launchBrowser": true,
      "launchUrl": "swagger/index.html",
      "environmentVariables": {
        "ASPNETCORE_ENVIRONMENT": "Development"
      },
      "applicationUrl": "https://localhost:5101;http://localhost:5100"
    }
  }
}